<?xml version="1.0" encoding="utf-8"?>
<svg xmlns="http://www.w3.org/2000/svg" xmlns:xlink="http://www.w3.org/1999/xlink" style="margin: auto; background: none; display: block; shape-rendering: auto;" width="200px" height="200px" viewBox="0 0 100 100" preserveAspectRatio="xMidYMid">
<g transform="translate(80,50)">
<g transform="rotate(0)">
<circle cx="0" cy="0" r="6" fill="#93dbe9" fill-opacity="1">
  <animateTransform attributeName="transform" type="scale" begin="-1.232394366197183s" values="1.5 1.5;1 1" keyTimes="0;1" dur="1.408450704225352s" repeatCount="indefinite"></animateTransform>
  <animate attributeName="fill-opacity" keyTimes="0;1" dur="1.408450704225352s" repeatCount="indefinite" values="1;0" begin="-1.232394366197183s"></animate>
</circle>
</g>
</g><g transform="translate(71.21320343559643,71.21320343559643)">
<g transform="rotate(45)">
<circle cx="0" cy="0" r="6" fill="#93dbe9" fill-opacity="0.875">
  <animateTransform attributeName="transform" type="scale" begin="-1.056338028169014s" values="1.5 1.5;1 1" keyTimes="0;1" dur="1.408450704225352s" repeatCount="indefinite"></animateTransform>
  <animate attributeName="fill-opacity" keyTimes="0;1" dur="1.408450704225352s" repeatCount="indefinite" values="1;0" begin="-1.056338028169014s"></animate>
</circle>
</g>
</g><g transform="translate(50,80)">
<g transform="rotate(90)">
<circle cx="0" cy="0" r="6" fill="#93dbe9" fill-opacity="0.75">
  <animateTransform attributeName="transform" type="scale" begin="-0.880281690140845s" values="1.5 1.5;1 1" keyTimes="0;1" dur="1.408450704225352s" repeatCount="indefinite"></animateTransform>
  <animate attributeName="fill-opacity" keyTimes="0;1" dur="1.408450704225352s" repeatCount="indefinite" values="1;0" begin="-0.880281690140845s"></animate>
</circle>
</g>
</g><g transform="translate(28.786796564403577,71.21320343559643)">
<g transform="rotate(135)">
<circle cx="0" cy="0" r="6" fill="#93dbe9" fill-opacity="0.625">
  <animateTransform attributeName="transform" type="scale" begin="-0.704225352112676s" values="1.5 1.5;1 1" keyTimes="0;1" dur="1.408450704225352s" repeatCount="indefinite"></animateTransform>
  <animate attributeName="fill-opacity" keyTimes="0;1" dur="1.408450704225352s" repeatCount="indefinite" values="1;0" begin="-0.704225352112676s"></animate>
</circle>
</g>
</g><g transform="translate(20,50.00000000000001)">
<g transform="rotate(180)">
<circle cx="0" cy="0" r="6" fill="#93dbe9" fill-opacity="0.5">
  <animateTransform attributeName="transform" type="scale" begin="-0.528169014084507s" values="1.5 1.5;1 1" keyTimes="0;1" dur="1.408450704225352s" repeatCount="indefinite"></animateTransform>
  <animate attributeName="fill-opacity" keyTimes="0;1" dur="1.408450704225352s" repeatCount="indefinite" values="1;0" begin="-0.528169014084507s"></animate>
</circle>
</g>
</g><g transform="translate(28.78679656440357,28.786796564403577)">
<g transform="rotate(225)">
<circle cx="0" cy="0" r="6" fill="#93dbe9" fill-opacity="0.375">
  <animateTransform attributeName="transform" type="scale" begin="-0.352112676056338s" values="1.5 1.5;1 1" keyTimes="0;1" dur="1.408450704225352s" repeatCount="indefinite"></animateTransform>
  <animate attributeName="fill-opacity" keyTimes="0;1" dur="1.408450704225352s" repeatCount="indefinite" values="1;0" begin="-0.352112676056338s"></animate>
</circle>
</g>
</g><g transform="translate(49.99999999999999,20)">
<g transform="rotate(270)">
<circle cx="0" cy="0" r="6" fill="#93dbe9" fill-opacity="0.25">
  <animateTransform attributeName="transform" type="scale" begin="-0.176056338028169s" values="1.5 1.5;1 1" keyTimes="0;1" dur="1.408450704225352s" repeatCount="indefinite"></animateTransform>
  <animate attributeName="fill-opacity" keyTimes="0;1" dur="1.408450704225352s" repeatCount="indefinite" values="1;0" begin="-0.176056338028169s"></animate>
</circle>
</g>
</g><g transform="translate(71.21320343559643,28.78679656440357)">
<g transform="rotate(315)">
<circle cx="0" cy="0" r="6" fill="#93dbe9" fill-opacity="0.125">
  <animateTransform attributeName="transform" type="scale" begin="0s" values="1.5 1.5;1 1" keyTimes="0;1" dur="1.408450704225352s" repeatCount="indefinite"></animateTransform>
  <animate attributeName="fill-opacity" keyTimes="0;1" dur="1.408450704225352s" repeatCount="indefinite" values="1;0" begin="0s"></animate>
</circle>
</g>
</g>
<!-- [ldio] generated by https://loading.io/ --></svg>